{
    "author":"rudra",
    "version":"0.0.3",
    "updated":"20200504",
    "animals": [
        {
          "ID": 1,
          "CODE": "lion",
          "NAME": "African Lion",
          "GIF_URL": "https://gph.is/2fmCut5",
          "VOICE_URL": "http://soundbible.com/grab.php?id=1272&type=wav",
          "IMG_URL": "http://pngimg.com/uploads/lion/lion_PNG23275.png",
          "LOCAL_PATH": "",
          "BACKGROUND": "grassland"
        },
        {
          "ID": 2,
          "CODE": "tiger",
          "NAME": "Bengal Tiger",
          "GIF_URL": "https://gph.is/2QWyzFV",
          "VOICE_URL": "http://soundbible.com/grab.php?id=1485&type=wav",
          "IMG_URL": "http://pngimg.com/uploads/tiger/tiger_PNG23252.png",
          "LOCAL_PATH": "",
          "BACKGROUND": "grassland"
        },
        {
          "ID": 3,
          "CODE": "elephant",
          "NAME": "Elephant",
          "GIF_URL": "https://gph.is/2QWyzFV",
          "VOICE_URL": "http://soundbible.com/grab.php?id=157&type=wav",
          "IMG_URL": "http://pngimg.com/uploads/elephants/elephants_PNG18801.png",
          "LOCAL_PATH": "",
          "BACKGROUND": "grassland"
        },
        
        {
          "ID": 4,
          "CODE": "croc",
          "NAME": "Crocodile",
          "GIF_URL": "https://gph.is/2QWyzFV",
          "VOICE_URL": "http://soundbible.com/grab.php?id=560&type=wav",
          "IMG_URL": "http://pngimg.com/uploads/crocodile/crocodile_PNG13182.png",
          "LOCAL_PATH": "",
          "BACKGROUND": "grassland"
        },
        {
          "ID": 5,
          "CODE": "leopard",
          "NAME": "Leopard",
          "GIF_URL": "https://gph.is/2QWyzFV",
          "VOICE_URL": "http://soundbible.com/grab.php?id=1130&type=wav",
          "IMG_URL": "http://pngimg.com/uploads/leopard/leopard_PNG14832.png",
          "LOCAL_PATH": "",
          "BACKGROUND": "forest"
        },
        {
          "ID":6,
          "CODE": "bear",
          "NAME": "Black Bear",
          "GIF_URL": "https://gph.is/2QWyzFV",
          "VOICE_URL": "http://soundbible.com/grab.php?id=1142&type=wav",
          "IMG_URL": "http://pngimg.com/uploads/bear/bear_PNG1191.png",
          "LOCAL_PATH": "",
          "BACKGROUND": "grassland"
        }
        ,
        {
          "ID":7,
          "CODE": "bison",
          "NAME": "Bison",
          "GIF_URL": "https://gph.is/2QWyzFV",
          "VOICE_URL": "http://soundbible.com/grab.php?id=918&type=wav",
          "IMG_URL": "http://pngimg.com/uploads/bison/bison_PNG92403.png",
          "LOCAL_PATH": "",
          "BACKGROUND": "grassland"
        }
        ,
        {
          "ID":8,
          "CODE": "deer",
          "NAME": "Deer",
          "GIF_URL": "https://gph.is/2QWyzFV",
          "VOICE_URL": "http://soundbible.com/grab.php?id=2073&type=wav",
          "IMG_URL": "http://pngimg.com/uploads/deer/deer_PNG10185.png",
          "LOCAL_PATH": "",
          "BACKGROUND": "forest"
        }
        ,
        {
          "ID":9,
          "CODE": "camel",
          "NAME": "Camel",
          "GIF_URL": "https://gph.is/2QWyzFV",
          "VOICE_URL": "http://soundbible.com/grab.php?id=1735&type=wav",
          "IMG_URL": "http://pngimg.com/uploads/camel/camel_PNG23419.png",
          "LOCAL_PATH": "",
          "BACKGROUND": "sand"
        },
        {
          "ID":10,
          "CODE": "chimp",
          "NAME": "Chimpanzee",
          "GIF_URL": "https://gph.is/2QWyzFV",
          "VOICE_URL": "http://soundbible.com/grab.php?id=1188&type=wav",
          "IMG_URL": "http://pngimg.com/uploads/monkey/monkey_PNG18736.png",
          "LOCAL_PATH": "",
          "BACKGROUND": "forest"
        },
        {
          "ID":11,
          "CODE": "gorilla",
          "NAME": "Gorilla",
          "GIF_URL": "https://gph.is/2QWyzFV",
          "VOICE_URL": "http://soundbible.com/grab.php?id=1149&type=wav",
          "IMG_URL": "http://pngimg.com/uploads/gorilla/gorilla_PNG18713.png",
          "LOCAL_PATH": "",
          "BACKGROUND": "forest"
        }
        ,
        {
          "ID":13,
          "CODE": "rhino",
          "NAME": "Rhinocerous",
          "GIF_URL": "https://gph.is/2QWyzFV",
          "VOICE_URL": "no-sound",
          "IMG_URL": "http://pngimg.com/uploads/rhino/rhino_PNG33.png",
          "LOCAL_PATH": "",
          "BACKGROUND": "grassland"
        },
        {
          "ID":14,
          "CODE": "hyena",
          "NAME": "Hyena",
          "GIF_URL": "https://gph.is/2QWyzFV",
          "VOICE_URL": "http://soundbible.com/grab.php?id=2191&type=wav",
          "IMG_URL": "http://pngimg.com/uploads/hyena/hyena_PNG51.png",
          "LOCAL_PATH": "",
          "BACKGROUND": "grassland"
        }
        ,
        {
          "ID":15,
          "CODE": "pig",
          "NAME": "Pig",
          "GIF_URL": "https://gph.is/2QWyzFV",
          "VOICE_URL": "http://soundbible.com/grab.php?id=736&type=wav",
          "IMG_URL": "http://pngimg.com/uploads/pig/pig_PNG2211.png",
          "LOCAL_PATH": "",
          "BACKGROUND": "grassland"
        },
        {
          "ID":16,
          "CODE": "zebra",
          "NAME": "Zebra",
          "GIF_URL": "https://gph.is/2QWyzFV",
          "VOICE_URL": "http://soundbible.com/grab.php?id=1316&type=wav",
          "IMG_URL": "http://pngimg.com/uploads/zebra/zebra_PNG8968.png",
          "LOCAL_PATH": "",
          "BACKGROUND": "grassland"
        }
    
      ]
}